…
</p>
Using this template helps to keep consistency across analytic projects, making collaboration and reproducible working easier. Moreover, some of phenotools' reporting functions make use of this structure to find relevant files and combine them for export, so deviating too far from this core structure will restrict the extent to which the package can help you at the other end.

  \#\# Data preparation with phenotools

The main workhorse of the phenotools package is the `curate_dataset` function. The purpose of this function is to curate an analysis-ready dataset based on the variables, from MoBa and other supported sources, you request. This means that psychometric scales will be coded up for you, and derived variables such as BMI computed and returned along with specific demographic variables and family-level IDs.

The first step is to ascertain what variables are available and what names you need to refer to them by in your request. This is done using the `available_variables` function:

``` r
available_variables(source = "moba")
#> Values from column:var_name are valid inputs for curate_dataset()
#> # A tibble: 60 x 5
#>    measure subscale   questionnaire var_name     source
#>    <chr>   <chr>      <chr>         <chr>        <chr> 
#>  1 BMI     mother     Q1            bmi_mat_q1   moba  
#>  2 BMI     father     Q1            bmi_pat_q1   moba  
#>  3 SCL     anxiety    Q3            scl_anx_q3   moba  
#>  4 SCL     depression Q3            scl_dep_q3   moba  
#>  5 SCL     <NA>       Q4_6months    scl_full_6m  moba  
#>  6 SCL     anxiety    Q4_6months    scl_anx_6m   moba  
#>  7 SCL     depression Q4_6months    scl_dep_6m   moba  
#>  8 SCL     <NA>       Q5_18months   scl_full_18m moba  
#>  9 SCL     anxiety    Q5_18months   scl_anx_18m  moba  
#> 10 SCL     depression Q5_18months   scl_dep_18m  moba  
#> # ... with 50 more rows
```
…
